Installation
…
No pathway information

The differential network analysis compares the gene-gene association network between the two groups (stage ii vs stage iv). The dnapath package enables the use of known pathway information into the analysis, but a pathway list is not required. The dnapath() method can be run on the full gene expression dataset, without using pathways:

# Run dnapath using the gene expression and group information from meso dataset.
results <- dnapath(meso$gene_expression, 
                   pathway_list = NULL, 
                   groups = meso$groups)
results

## Differential network analysis between stageii (group 1) and stageiv (group 2).
## Results for an unnamed pathway (out of 1 pathways analyzed) containing 150 genes.
## Pathway p-value = 0.733. The mean expression of genes in the pathway is 9.3 in group 1 and 9.4 in group 2.
## # A tibble: 150 × 6
##    pathway genes dc_score p_value mean_expr1 mean_expr2
##    <chr>   <chr>    <dbl>   <dbl>      <dbl>      <dbl>
##  1 unnamed 5111  0.000569  0.0297      10.5       10.8 
##  2 unnamed 23019 0.000641  0.0594      11.6       11.8 
##  3 unnamed 57459 0.000500  0.0594       9.78       9.67
##  4 unnamed 6233  0.000722  0.0891      13.6       13.3 
##  5 unnamed 843   0.00108   0.0990       8.94       9.23
##  6 unnamed 3065  0.00115   0.119       10.0       10.3 
##  7 unnamed 5527  0.000825  0.119       10.4       10.6 
##  8 unnamed 5366  0.000815  0.158        6.89       7.55
##  9 unnamed 7874  0.000800  0.168       11.2       11.1 
## 10 unnamed 3276  0.000502  0.168       11.2       11.3 
## # … with 140 more rows
…
# Summary table of the edges in pathway 1.
# Note: could instead use the summarize_edges(results[[1]]) function call.
summary(results[[1]], by_gene = FALSE) # Set by_gene to FALSE to obtain edges.

## # A tibble: 66 × 6
##    pathway                         edges        dc_score p_value     nw1     nw2
##    <chr>                           <chr>           <dbl>   <dbl>   <dbl>   <dbl>
##  1 TP53 Regulates Transcription o… FAS - TP73     0.0725 0.00990  0.0257 -0.244 
##  2 TP53 Regulates Transcription o… IGFBP3 - PP…   0.0784 0.0198  -0.0755  0.205 
##  3 TP53 Regulates Transcription o… IGFBP3 - TN…   0.100  0.0297   0.135  -0.181 
##  4 TP53 Regulates Transcription o… TMEM219 - T…   0.0933 0.0297   0.126  -0.180 
##  5 TP53 Regulates Transcription o… TNFRSF10A -…   0.0477 0.0297  -0.164   0.0543
##  6 TP53 Regulates Transcription o… PPP1R13B - …   0.0482 0.0495   0.0647 -0.155 
##  7 TP53 Regulates Transcription o… FAS - PPP1R…   0.0351 0.0594  -0.0265 -0.214 
##  8 TP53 Regulates Transcription o… PPP1R13B - …   0.0497 0.0792   0.0701 -0.153 
##  9 TP53 Regulates Transcription o… PPP1R13B - …   0.0195 0.0792   0.0773 -0.0625
## 10 TP53 Regulates Transcription o… TNFRSF10A -…   0.0242 0.0891   0.0551  0.210 
## # … with 56 more rows
…
